<?xml version="1.0" encoding="utf-8"?>
<!-- Generator: Adobe Illustrator 19.2.0, SVG Export Plug-In . SVG Version: 6.00 Build 0)  -->
<svg version="1.1" id="icons" xmlns="http://www.w3.org/2000/svg" xmlns:xlink="http://www.w3.org/1999/xlink" x="0px" y="0px"
	 viewBox="0 0 69.9 61.7" style="enable-background:new 0 0 69.9 61.7;" xml:space="preserve">
<style type="text/css">
	.st0{fill:url(#SVGID_1_);}
	.st1{fill:url(#SVGID_2_);}
	.st2{fill:url(#SVGID_3_);}
	.st3{fill:url(#SVGID_4_);}
</style>
<g>
	<linearGradient id="SVGID_1_" gradientUnits="userSpaceOnUse" x1="2.9269" y1="42.3361" x2="20.7929" y2="42.3361">
		<stop  offset="0" style="stop-color:#EE7D00"/>
		<stop  offset="1" style="stop-color:#E53212"/>
	</linearGradient>
	<path class="st0" d="M19.3,24.6c-0.3-0.6-1-1.1-1.7-1.1c0,0-0.1,0-0.1,0c-3,0-13.5,11.1-13.6,11.2c-0.4,0.5-1,1.4-0.9,12.2
		C3,57.8,3.7,58.5,4.2,59c0,0,0,0,0,0c1.6,1.7,7.3,2.1,10.5,2.1c0.7,0,1.4,0,1.7-0.1c1.5-0.1,3-0.4,3.8-1.6
		c0.4-0.6,0.9-1.5,0.3-17.8C19.9,25.9,19.5,24.9,19.3,24.6z M16.7,57.1c-2.1,0.3-7.5-0.1-9.4-0.7c-0.5-3.3-0.6-17-0.1-19.5
		c1.1-1.3,5.8-5.7,8.6-8C16.4,35.8,17,53,16.7,57.1z"/>
	<linearGradient id="SVGID_2_" gradientUnits="userSpaceOnUse" x1="25.2353" y1="42.5904" x2="44.6565" y2="42.5904">
		<stop  offset="0" style="stop-color:#EE7D00"/>
		<stop  offset="1" style="stop-color:#E53212"/>
	</linearGradient>
	<path class="st1" d="M43.1,32.1C43,32,29.8,23.1,27.3,23.5c-0.7,0.1-1.2,0.5-1.5,1c-1.3,2.2,0.4,34.7,0.5,35c0,0,0,0,0,0v0
		c0.1,0.5,0.4,1.3,1.6,1.7c0.8,0.3,3.6,0.5,6.6,0.5c3.8,0,8.1-0.3,9.1-1.2c0.8-0.6,1-1.6,1.1-3.9c0.1-3.5,0-9.4-0.2-13.9
		C44,32.9,43.7,32.7,43.1,32.1z M40.6,57.4c-2.3,0.3-8.1,0.5-10.5,0.2c-0.3-4.9-0.9-22.8-0.8-29.3c3.1,1.7,8.9,5.2,10.7,6.4
		C40.4,38.2,40.9,53.3,40.6,57.4z"/>
	<linearGradient id="SVGID_3_" gradientUnits="userSpaceOnUse" x1="49.6345" y1="40.8743" x2="67.1597" y2="40.8743">
		<stop  offset="0" style="stop-color:#EE7D00"/>
		<stop  offset="1" style="stop-color:#E53212"/>
	</linearGradient>
	<path class="st2" d="M64.9,20.6c-1-0.1-1.6-0.1-7.9,6.2c-2.8,2.9-5.7,5.9-6.2,6.5c-0.5,0.6-1.1,1.3-1.2,13.4
		c-0.1,12.2,0.5,12.8,1.2,13.4c0.8,0.8,2.6,1.2,5.3,1.2c1,0,2.1-0.1,3.4-0.2c5.3-0.4,6-1.4,6.4-1.9c0.5-0.6,1-1.3,1.2-19
		c0.2-17.5-0.3-18.2-0.6-18.7C66.2,21,65.6,20.6,64.9,20.6z M62.6,56.6c-1.9,0.5-6.7,0.8-8.7,0.5c-0.4-3.9-0.3-18.8,0.2-21.5
		c1.4-1.6,6-6.4,9-9.2C63.2,34.2,63.1,52.5,62.6,56.6z"/>
	<linearGradient id="SVGID_4_" gradientUnits="userSpaceOnUse" x1="-2.105355e-005" y1="13.0831" x2="69.8801" y2="13.0831">
		<stop  offset="0" style="stop-color:#EE7D00"/>
		<stop  offset="1" style="stop-color:#E53212"/>
	</linearGradient>
	<path class="st3" d="M69.3,0.6C68.9,0.2,68.4,0,67.8,0L56,0.3c-1.1,0-2,1-1.9,2.1s0.9,2,2.1,1.9l6.2-0.2c-1,0.9-2.9,2.8-6.9,6.7
		c-3.2,3.2-7.9,7.9-9.8,9.5c-1.3-0.8-3.9-2.6-6.2-4.2C26,6.7,23.7,5.6,22,6.2C19.8,7,6.4,17.9,0.7,22.6c-0.9,0.7-1,2-0.3,2.8
		c0.4,0.5,1,0.7,1.5,0.7c0.4,0,0.9-0.1,1.3-0.5c8.2-6.8,17.5-14.1,19.7-15.5c2.3,0.9,9.9,6.2,14.1,9.2c7.3,5.1,7.7,5.3,8.6,5.3
		c1.2,0,1.5,0,12.5-10.9c2.9-2.8,6.4-6.4,7.2-6.9c0.2-0.1,0.3-0.2,0.4-0.3l-0.1,6c0,1.1,0.9,2,2,2c0,0,0,0,0,0c1.1,0,2-0.9,2-2
		L69.9,2C69.9,1.5,69.7,1,69.3,0.6z"/>
</g>
</svg>
