<?xml version="1.0" encoding="utf-8"?>
<!-- Generator: Adobe Illustrator 19.2.0, SVG Export Plug-In . SVG Version: 6.00 Build 0)  -->
<svg version="1.1" id="icons" xmlns="http://www.w3.org/2000/svg" xmlns:xlink="http://www.w3.org/1999/xlink" x="0px" y="0px"
	 viewBox="0 0 62.3 62.4" style="enable-background:new 0 0 62.3 62.4;" xml:space="preserve">
<style type="text/css">
	.st0{fill:url(#SVGID_1_);}
	.st1{fill:url(#SVGID_2_);}
	.st2{fill:url(#SVGID_3_);}
</style>
<g>
	<linearGradient id="SVGID_1_" gradientUnits="userSpaceOnUse" x1="9.6432" y1="14.1091" x2="22.0296" y2="14.1091">
		<stop  offset="0" style="stop-color:#EE7D00"/>
		<stop  offset="1" style="stop-color:#E53212"/>
	</linearGradient>
	<path class="st0" d="M22,14.5c-0.1-2.6-1.6-4.9-3.9-6c-2.8-1.3-5.7-0.6-7.3,1.8c-1.8,2.5-1.5,6,0.6,8.1v0c1.2,1.2,3,1.9,4.7,1.9
		c1,0,2-0.2,2.9-0.7C21,18.6,22.1,16.7,22,14.5z M17.2,16.1c-0.9,0.4-2.3,0.2-3-0.5v0c-0.8-0.8-0.7-2.2-0.1-3
		c0.3-0.5,0.8-0.7,1.3-0.7c0.3,0,0.7,0.1,1.1,0.3c1.1,0.5,1.6,1.6,1.6,2.5C18,15.3,17.8,15.8,17.2,16.1z"/>
	<linearGradient id="SVGID_2_" gradientUnits="userSpaceOnUse" x1="9.6432" y1="48.4427" x2="22.0296" y2="48.4427">
		<stop  offset="0" style="stop-color:#EE7D00"/>
		<stop  offset="1" style="stop-color:#E53212"/>
	</linearGradient>
	<path class="st1" d="M18.1,42.9c-2.8-1.3-5.7-0.6-7.3,1.8c-1.8,2.5-1.5,6,0.6,8.1v0c1.2,1.2,3,1.9,4.7,1.9c1,0,2-0.2,2.9-0.7
		c1.9-1,3-2.9,2.9-5.1C22,46.3,20.4,43.9,18.1,42.9z M17.2,50.4c-0.9,0.5-2.3,0.2-3-0.5v0c-0.8-0.8-0.7-2.2-0.1-3
		c0.3-0.5,0.8-0.7,1.3-0.7c0.3,0,0.7,0.1,1.1,0.3c1.1,0.5,1.6,1.6,1.6,2.5C18,49.6,17.8,50.1,17.2,50.4z"/>
	<linearGradient id="SVGID_3_" gradientUnits="userSpaceOnUse" x1="-1.230112e-002" y1="31.1794" x2="62.321" y2="31.1794">
		<stop  offset="0" style="stop-color:#EE7D00"/>
		<stop  offset="1" style="stop-color:#E53212"/>
	</linearGradient>
	<path class="st2" d="M31.1,34.9c-3,0-5.7,0.1-8.2,0.1l-0.5-7.5c2.7,0,5.8-0.1,9.4-0.1c27.6-0.5,28.6-1.2,29.2-1.7
		c0.8-0.6,1.3-1.6,1.4-5.4c0-0.2,0.2-16.8-2.4-19.1c-0.6-0.5-1.7-1.5-28.8-1.2C4,0.4,2.6,1.5,2,1.9c0,0,0,0,0,0s0,0,0,0
		c-2,1.6-2.2,8.8-2,14.6c0.3,8.9,1.5,9.7,2.3,10.2c0.4,0.2,0.9,0.6,7.6,0.8l-0.2,8.1C3.1,36,2.4,36.5,2,36.8c0,0,0,0,0,0s0,0,0,0
		c-2,1.6-2.2,8.8-2,14.6c0.3,8.9,1.5,9.7,2.3,10.2c0.5,0.3,1.3,0.9,14.7,0.9c3.8,0,8.6,0,14.8-0.1c27.6-0.5,28.6-1.2,29.2-1.7
		c0.8-0.6,1.3-1.6,1.4-5.4c0-0.2,0.2-16.8-2.4-19.1C59.3,35.5,58.2,34.5,31.1,34.9z M4.6,5.2c5.8-1.1,46.1-1.7,52.6-0.7
		c0.9,3,1.5,14.5,1,18c-7,0.9-47.2,1.5-53.4,0.8C3.8,20.1,3.7,8,4.6,5.2z M13.9,27.5c1,0,2,0,3.1,0c0.4,0,0.9,0,1.4,0l0.5,7.6
		c-2,0.1-3.7,0.1-5.2,0.2L13.9,27.5z M58.2,57.3c-7,0.9-47.2,1.5-53.4,0.8c-0.9-3.2-1-15.2-0.1-18.1c5.8-1.1,46.1-1.7,52.6-0.7
		C58.1,42.3,58.7,53.8,58.2,57.3z"/>
</g>
</svg>
