<?xml version="1.0" encoding="utf-8"?>
<!-- Generator: Adobe Illustrator 19.2.0, SVG Export Plug-In . SVG Version: 6.00 Build 0)  -->
<svg version="1.1" id="Laag_1" xmlns="http://www.w3.org/2000/svg" xmlns:xlink="http://www.w3.org/1999/xlink" x="0px" y="0px"
	 viewBox="0 0 51.5 40.7" style="enable-background:new 0 0 51.5 40.7;" xml:space="preserve">
<style type="text/css">
	.st0{fill:url(#SVGID_1_);}
	.st1{fill:url(#SVGID_2_);}
	.st2{fill:url(#SVGID_3_);}
</style>
<g>
	<linearGradient id="SVGID_1_" gradientUnits="userSpaceOnUse" x1="0" y1="20.3383" x2="51.4591" y2="20.3383">
		<stop  offset="0" style="stop-color:#EF7D00"/>
		<stop  offset="1" style="stop-color:#E63312"/>
	</linearGradient>
	<path class="st0" d="M49.1,2.8C46.8,0,35.9-0.1,31.3,0C25.8,0.2,19,0.7,17.7,2.5c-1.5,1.9-1.7,8.1-1.8,10.5c-4.4,0-12,0.3-13.8,2.5
		c-2.4,2.9-2.4,14.6-1.6,18.2c0.3,1.2,1.7,1.7,3.5,2.2c0,0,0.1,0,0.1,0C4.1,36.1,4.3,37,4.1,39c-0.1,0.6,0.3,1.2,0.9,1.5
		c0.2,0.1,0.5,0.1,0.8,0.1c2.3,0,7.4-2.4,9.6-4.3c3.3,0.4,12.1,0,13.8-2.3c0.8-1.2,1.3-3.8,1.5-6.8c1,0,2.1,0,3-0.2
		c2.7,2.3,8.6,5,11.2,5c0.3,0,0.6,0,0.8-0.1c0.6-0.3,1-0.9,0.9-1.5c-0.2-2.7,0-3.7,0.2-4c0.1,0,0.2,0,0.2-0.1c2-0.6,3.6-1.1,3.9-2.4
		C51.8,19.8,51.8,6.1,49.1,2.8z M27,32.5c-1.1,1-9.2,1.8-11.6,1.2c-0.5-0.1-1,0-1.3,0.4c-1.5,1.5-5.2,3.2-7.1,3.8
		c0.1-2.3-0.4-3.7-1.4-4.3c-0.2-0.1-0.4-0.2-0.9-0.3c-0.3-0.1-1.2-0.3-1.6-0.5c-0.7-4-0.3-13.8,1.1-15.5c0.5-0.6,4.1-1.5,11.3-1.5
		c0,0,0,0,0,0c6.2,0,10.6,0.7,11.5,1.2C28.1,18.6,28.6,30.2,27,32.5z M48.3,23.1c-0.5,0.3-1.6,0.6-2,0.7c-0.5,0.1-0.7,0.2-1,0.3
		c-1.2,0.7-1.6,2.3-1.5,5.2c-2.2-0.6-6.9-2.6-8.8-4.6c-0.3-0.3-0.8-0.5-1.3-0.4c-0.6,0.2-1.7,0.2-3,0.3c0-4.1-0.6-8.2-1.6-9.5
		c-1.1-1.4-6.1-2-10.5-2.1c0.1-4.7,0.7-8,1.2-8.8c0.9-0.6,6.2-1.4,13.7-1.4c0,0,0,0,0,0c8.7,0,12.9,1.1,13.4,1.8
		C48.7,6.7,49.2,18.5,48.3,23.1z"/>
	<linearGradient id="SVGID_2_" gradientUnits="userSpaceOnUse" x1="5.3018" y1="21.3235" x2="15.3583" y2="21.3235">
		<stop  offset="0" style="stop-color:#EF7D00"/>
		<stop  offset="1" style="stop-color:#E63312"/>
	</linearGradient>
	<path class="st1" d="M14.1,18c-0.3,0-7-0.3-8,1.3c-0.2,0.2-0.5,0.7-0.8,3.9c-0.1,0.8,0.5,1.4,1.2,1.5c0,0,0.1,0,0.1,0
		c0.7,0,1.3-0.5,1.4-1.2c0.1-0.8,0.2-1.8,0.3-2.4c1-0.2,3.3-0.4,5.6-0.3c0.8,0,1.4-0.6,1.4-1.3C15.4,18.7,14.8,18,14.1,18z"/>
	<linearGradient id="SVGID_3_" gradientUnits="userSpaceOnUse" x1="21.3239" y1="8.376" x2="34.7895" y2="8.376">
		<stop  offset="0" style="stop-color:#EF7D00"/>
		<stop  offset="1" style="stop-color:#E63312"/>
	</linearGradient>
	<path class="st2" d="M33.5,5.1c-0.1,0-10.1-0.3-11.3,1.5c-0.3,0.5-0.6,1.7-0.9,3.5c-0.1,0.7,0.4,1.4,1.2,1.5c0.1,0,0.1,0,0.2,0
		c0.7,0,1.3-0.5,1.3-1.2c0.1-0.8,0.3-1.6,0.4-2.1c1.3-0.3,5.5-0.7,8.9-0.5c0.7,0,1.4-0.5,1.4-1.3C34.8,5.8,34.2,5.2,33.5,5.1z"/>
</g>
</svg>
