<?xml version="1.0" encoding="utf-8"?>
<!-- Generator: Adobe Illustrator 19.2.0, SVG Export Plug-In . SVG Version: 6.00 Build 0)  -->
<svg version="1.1" id="Laag_1" xmlns="http://www.w3.org/2000/svg" xmlns:xlink="http://www.w3.org/1999/xlink" x="0px" y="0px"
	 viewBox="0 0 47.1 55.7" style="enable-background:new 0 0 47.1 55.7;" xml:space="preserve">
<style type="text/css">
	.st0{fill:url(#SVGID_1_);}
	.st1{fill:url(#SVGID_2_);}
</style>
<g>
	<linearGradient id="SVGID_1_" gradientUnits="userSpaceOnUse" x1="0" y1="27.8347" x2="47.0531" y2="27.8347">
		<stop  offset="0" style="stop-color:#EF7D00"/>
		<stop  offset="1" style="stop-color:#E63312"/>
	</linearGradient>
	<path class="st0" d="M45.7,9.4c-0.4-0.2-1.1-0.7-17.5-0.9c0-0.4,0-0.8,0.1-1.2c0.3-4.1,0.3-5.3-0.1-6.1C27.7,0.5,26.9,0,24.3,0
		c-4-0.1-4.4,0.8-4.6,1.1c-0.4,0.7-0.4,2.2-0.2,7.2C3.1,8.3,2.3,8.7,2,8.9c-1,0.5-1.6,1.9-1.9,4.1c-0.2,1.5-0.3,3.5,0.7,4.4
		c0.2,0.2,0.3,0.3,1.4,0.5c-0.1,0.1-0.1,0.3-0.2,0.5c0,0.2-0.7,23.7,1.4,26.1c0.4,0.4,0.8,0.8,7.4,1.3l-3.7,7.9
		c-0.3,0.7,0,1.5,0.7,1.8c0.2,0.1,0.4,0.1,0.6,0.1c0.5,0,1-0.3,1.2-0.8l4-8.7c0-0.1,0.1-0.2,0.1-0.2c0.4,0,0.8,0,1.2,0.1
		c5.4,0.2,11.8,0.4,17,0.4c0.5,0,0.9,0,1.4,0c0.2,0,0.4,0,0.6,0l3.6,8.7c0.2,0.5,0.7,0.8,1.3,0.8c0.2,0,0.4,0,0.5-0.1
		c0.7-0.3,1-1.1,0.7-1.8l-3.2-7.6c5.9-0.1,6.3-0.6,6.7-1c0.4-0.5,1.1-1.2,1.2-13.5c0-1.2,0.1-11.4-0.4-12.9c0.9-0.1,1.1-0.2,1.2-0.2
		c0.3-0.2,1.3-0.8,1.5-4.3C47.1,12.4,46.9,10.2,45.7,9.4z M22.1,2.8c0.9-0.1,2.6-0.2,3.5,0c0,1-0.1,3-0.2,4.3c0,0.5-0.1,0.9-0.1,1.3
		c-0.5,0-1,0-1.6,0c-0.5,0-1,0-1.5,0C22.2,6.6,22.1,4,22.1,2.8z M3.3,11.3c4.1-0.5,36.5-0.1,40.8,0.4c0.3,0.9,0.3,3.2,0,4.3
		c-4.8,0.3-36.5-0.4-41.4-0.9C2.6,14.1,2.9,12,3.3,11.3z M41.8,19.5c0.3,1.8,0.4,20.1-0.3,23.6c-4.3,0.7-31.8,0.1-36-0.8
		c-0.9-3.2-1-22-0.7-23.7c0-0.2,0-0.4-0.1-0.6c3,0.2,8.5,0.4,18.5,0.6c6.9,0.1,11.6,0.2,14.8,0.2c1.5,0,2.7,0,3.7,0
		C41.7,19,41.7,19.3,41.8,19.5z"/>
	<linearGradient id="SVGID_2_" gradientUnits="userSpaceOnUse" x1="8.5949" y1="30.9789" x2="37.5716" y2="30.9789">
		<stop  offset="0" style="stop-color:#EF7D00"/>
		<stop  offset="1" style="stop-color:#E63312"/>
	</linearGradient>
	<path class="st1" d="M36.1,23.5l-6,0.1c-0.8,0-1.4,0.6-1.3,1.4c0,0.7,0.6,1.3,1.4,1.3c0,0,0,0,0,0l2.6,0c-0.5,0.4-1.2,1.1-2.2,1.9
		c-1.5,1.4-3.9,3.5-5.1,4.4c-0.4-0.4-1-1-1.5-1.5c-4.1-4.3-5.1-5.1-6.3-4.6c-0.3,0.1-1.1,0.5-8.7,9.6c-0.5,0.6-0.4,1.4,0.2,1.9
		c0.3,0.2,0.6,0.3,0.9,0.3c0.4,0,0.8-0.2,1-0.5c2.8-3.4,6-7.1,7.3-8.4c0.9,0.8,2.6,2.5,3.6,3.6c2.3,2.4,2.6,2.7,3.4,2.7
		c0.7,0,0.8,0,7-5.5c0.9-0.8,1.9-1.7,2.5-2.2l0,2.1c0,0.7,0.6,1.3,1.4,1.3c0,0,0,0,0,0c0.8,0,1.3-0.6,1.3-1.4l-0.1-5.2
		C37.4,24.1,36.8,23.5,36.1,23.5z"/>
</g>
</svg>
